<svg xmlns="http://www.w3.org/2000/svg" viewBox="0 0 37 21">
  <path fill-rule="evenodd" d="M25.5501171,0.0011694008 C25.0582579,0.0244049578 24.6288692,0.34237789 24.4623766,0.806668107 C24.2958841,1.27095832 24.4251166,1.79001717 24.7897524,2.12156378 L32.2159812,8.95253488 L1.28180956,8.95253488 C1.23959576,8.95032927 1.19729591,8.95032927 1.1550821,8.95253488 C0.720384394,8.97514281 0.330754668,9.22841126 0.132992399,9.61691712 C-0.06476987,10.005423 -0.0406126283,10.4701287 0.196362482,10.8359487 C0.433337592,11.2017687 0.847119714,11.4131128 1.28180956,11.3903536 L32.2159812,11.3903536 L24.7897524,18.2086277 C24.4449279,18.4968609 24.2866033,18.9519615 24.3778972,19.3924962 C24.4691912,19.833031 24.7952586,20.1873647 25.2261071,20.3142365 C25.6569557,20.4411082 26.1225254,20.3198875 26.4372093,19.9989008 L36.1698778,11.0602323 C36.4190021,10.8294897 36.5606551,10.5050113 36.5606551,10.1650957 C36.5606551,9.8251802 36.4190021,9.50070181 36.1698778,9.26995919 L26.4372093,0.331290681 C26.1980869,0.105827497 25.8781611,-0.0132292804 25.5501171,0.0011694008 Z"/>
</svg>
