<svg xmlns="http://www.w3.org/2000/svg" viewBox="0 0 18 31">
  <path fill="#F8F2F2" fill-rule="evenodd" d="M20.9066622,0.000959570057 C20.504193,0.0200258686 20.152841,0.280943516 20.0166066,0.661924092 C19.8803723,1.04290467 19.9861182,1.4688265 20.2844854,1.74088223 L26.3610782,7.34614207 L1.04885466,7.34614207 C1.01431275,7.34433223 0.979700443,7.34433223 0.945158537,7.34614207 C0.589462392,7.36469336 0.270643616,7.57251673 0.108822482,7.89131128 C-0.0529986529,8.21010582 -0.0332317263,8.59142735 0.160675743,8.89160666 C0.354583213,9.19178597 0.69316495,9.36520765 1.04885466,9.3465322 L26.3610782,9.3465322 L20.2844854,14.9413733 C20.002329,15.1778876 19.8727782,15.5513275 19.9474805,15.9128151 C20.0221828,16.2743028 20.2889909,16.5650569 20.6415375,16.6691635 C20.994084,16.7732701 21.3750415,16.6738005 21.632535,16.4104098 L29.5963972,9.07564604 C29.8002459,8.88630659 29.916155,8.62005078 29.916155,8.34112779 C29.916155,8.0622048 29.8002459,7.79594899 29.5963972,7.60660954 L21.632535,0.271845733 C21.4368705,0.0868384023 21.1750877,-0.0108554923 20.9066622,0.000959570057 Z" transform="rotate(90 8.5 9)"/>
</svg>
